
    "page": 2,
    "per_page": 5,
    "total": 12,
    "total_pages": 2,
    "data": [
        {
            "id": 7,
            "email": "test@reqres.com",
            "first_name": "Michael",
            "avatar": "https://reqres.in/img/faces/7-image.jpg"
        },
